pre4/TimingDiagram.vcd
$date
	Thu Apr 30 16:18:55 2020
$end
$version
	Icarus Verilog
$end
$timescale
	1ns
$end
$scope module testbench $end
$var wire 2 ! y [1:0] $end
$upscope $end
$scope module testbench $end
$var wire 4 " cs [3:0] $end
$upscope $end
$scope module testbench $end
$var wire 4 # ns [3:0] $end
$upscope $end
$scope module testbench $end
$var reg 1 $ x $end
$upscope $end
$scope module testbench $end
$var reg 1 % rst $end
$upscope $end
$scope module testbench $end
$var reg 1 & clk $end
$upscope $end
$enddefinitions $end
#0
$dumpvars
1&
1%
0$
b0 #
b0 "
b0 !
$end
#20
b1 #
0&
1$
0%
#40
b1 "
1&
#60
b10 #
0&
0$
#80
b11 #
b10 "
1&
#100
0&
#120
b100 #
b11 "
1&
#140
0&
#160
b0 #
b100 "
1&
#180
b101 #
0&
1$
#200
b1 !
b1 #
b101 "
1&
#220
b10 #
0&
0$
#240
b0 !
b11 #
b10 "
1&
#260
0&
#280
b100 #
b11 "
1&
#300
0&
#320
b0 #
b100 "
1&
#340
b101 #
0&
1$
#360
b1 !
b1 #
b101 "
1&
#380
0&
#400
b0 !
b1 "
1&
#420
b10 #
0&
0$
#440
b11 #
b10 "
1&
#460
0&
#480
b100 #
b11 "
1&
#500
0&
#520
b0 #
b100 "
1&
#540
b101 #
0&
1$
#560
b1 !
b1 #
b101 "
1&
#580
b10 #
0&
0$
#600
b0 !
b11 #
b10 "
1&
#620
0&
#640
b100 #
b11 "
1&
#660
0&
#680
b0 #
b100 "
1&
#700
b101 #
0&
1$
#720
b1 !
b1 #
b101 "
1&
#740
0&
#760
b0 !
b1 "
1&
#780
b10 #
0&
0$
#800
b11 #
b10 "
1&
#820
b110 #
0&
1$
#840
b1 #
b110 "
1&
#860
b111 #
0&
0$
#880
b11 #
b111 "
1&
#900
b1000 #
0&
1$
#920
b11 !
b1 #
b1000 "
1&
#940
b111 #
0&
0$
#960
b0 !
b11 #
b111 "
1&
#980
b1000 #
0&
1$
#1000
b11 !
b1 #
b1000 "
1&
#1020
0&
#1040
b0 !
b1 "
1&
#1060
b10 #
0&
0$
#1080
b11 #
b10 "
1&
#1100
b110 #
0&
1$
#1120
b1 #
b110 "
1&
#1140
b111 #
0&
0$
#1160
b11 #
b111 "
1&
#1180
b1000 #
0&
1$
#1200
b11 !
b1 #
b1000 "
1&
#1220
b111 #
0&
0$
#1240
b0 !
b11 #
b111 "
1&
#1260
b1000 #
0&
1$
#1280
b11 !
b1 #
b1000 "
1&
#1300
b111 #
0&
0$
1%
#1320
b0 !
b0 #
b0 "
1&
#1340
0&
#1350
b1 #
1$
0%
#1360
b1 "
1&
#1380
0&
#1390
b10 #
0$
#1400
b11 #
b10 "
1&
#1420
0&
#1430
b110 #
1$
#1440
b1 #
b110 "
1&
#1460
0&
#1470
b111 #
0$
#1480
b11 #
b111 "
1&
#1500
0&
#1510
b1000 #
1$
#1520
b11 !
b1 #
b1000 "
1&
#1540
0&
#1550
b111 #
0$
#1560
b0 !
b11 #
b111 "
1&
#1580
0&
#1590
b1000 #
1$
#1600
b11 !
b1 #
b1000 "
1&
#1620
0&
#1640
b0 !
b1 "
1&
#1660
0&
#1670
b10 #
0$
#1680
b11 #
b10 "
1&
#1700
0&
#1710
b110 #
1$
#1720
b1 #
b110 "
1&
#1740
0&
#1750
b111 #
0$
#1760
b11 #
b111 "
1&
#1780
0&
#1790
b1000 #
1$
#1800
b11 !
b1 #
b1000 "
1&
#1820
0&
#1830
b111 #
0$
#1840
b0 !
b11 #
b111 "
1&
#1860
0&
#1870
b1000 #
1$
#1880
b11 !
b1 #
b1000 "
1&
#1900
0&
#1920
b0 !
b1 "
1&
#1940
0&
#1950
b10 #
0$
#1960
b11 #
b10 "
1&
#1980
0&
#2000
b100 #
b11 "
1&
#2020
0&
#2040
b0 #
b100 "
1&
#2060
0&
#2070
b101 #
1$
#2080
b1 !
b1 #
b101 "
1&
#2100
0&
#2110
b10 #
0$
#2120
b0 !
b11 #
b10 "
1&
#2140
0&
#2160
b100 #
b11 "
1&
#2180
0&
#2200
b0 #
b100 "
1&
#2220
0&
#2230
b101 #
1$
#2240
b1 !
b1 #
b101 "
1&
#2260
0&
#2280
b0 !
b1 "
1&
#2300
0&
#2310
b10 #
0$
#2320
b11 #
b10 "
1&
#2340
0&
#2360
b100 #
b11 "
1&
#2380
0&
#2400
b0 #
b100 "
1&
#2420
0&
#2430
b101 #
1$
#2440
b1 !
b1 #
b101 "
1&
#2460
0&
#2470
b10 #
0$
#2480
b0 !
b11 #
b10 "
1&
#2500
0&
#2520
b100 #
b11 "
1&
#2540
0&
#2560
b0 #
b100 "
1&
#2580
0&
#2590
b101 #
1$
#2600
b1 !
b1 #
b101 "
1&
#2620
0&
#2630
b10 #
0$
1%
#2640
b0 !
b0 #
b0 "
1&
#2660
0&
#2680
b1 #
1&
1$
0%
#2700
0&
#2720
b1 "
b10 #
1&
0$
#2740
0&
#2760
b10 "
b110 #
1&
1$
#2780
0&
#2800
b110 "
b111 #
1&
0$
#2820
0&
#2840
b111 "
b1000 #
1&
1$
#2860
0&
#2880
b11 !
b1000 "
b111 #
1&
0$
#2900
0&
#2920
b0 !
b111 "
b1000 #
1&
1$
#2940
0&
#2960
b11 !
b1 #
b1000 "
1&
#2980
0&
#3000
b0 !
b1 "
b10 #
1&
0$
#3020
0&
#3040
b11 #
b10 "
1&
#3060
0&
#3080
b100 #
b11 "
1&
#3100
0&
#3120
b100 "
b101 #
1&
1$
#3140
0&
#3160
b1 !
b101 "
b10 #
1&
0$
#3180
0&
#3200
b0 !
b11 #
b10 "
1&
#3220
0&
#3240
b100 #
b11 "
1&
#3260
0&
#3280
b100 "
b101 #
1&
1$
#3300
0&
#3320
b1 !
b1 #
b101 "
1&
#3340
0&
#3360
b0 !
b1 "
b10 #
1&
0$
#3380
0&
#3400
b10 "
b110 #
1&
1$
#3420
0&
#3440
b110 "
b111 #
1&
0$
#3460
0&
#3480
b111 "
b1000 #
1&
1$
#3500
0&
#3520
b11 !
b1000 "
b111 #
1&
0$
#3540
0&
#3560
b0 !
b111 "
b1000 #
1&
1$
#3580
0&
#3600
b11 !
b1 #
b1000 "
1&
#3620
0&
#3640
b0 !
b1 "
b10 #
1&
0$
#3660
0&
#3680
b11 #
b10 "
1&
#3700
0&
#3720
b100 #
b11 "
1&
#3740
0&
#3760
b100 "
b101 #
1&
1$
#3780
0&
#3800
b1 !
b101 "
b10 #
1&
0$
#3820
0&
#3840
b0 !
b11 #
b10 "
1&
#3860
0&
#3880
b100 #
b11 "
1&
#3900
0&
#3920
b100 "
b101 #
1&
1$
#3940
0&
#3960
b0 "
b0 #
1&
0$
1%
#3980
0&
#4000
1&
#4010
b1 #
1$
0%
#4020
0&
#4040
b1 "
1&
#4050
b10 #
0$
#4060
0&
#4080
b11 #
b10 "
1&
#4100
0&
#4120
b100 #
b11 "
1&
#4140
0&
#4160
b0 #
b100 "
1&
#4170
b101 #
1$
#4180
0&
#4200
b1 !
b1 #
b101 "
1&
#4210
b10 #
0$
#4220
0&
#4240
b0 !
b11 #
b10 "
1&
#4260
0&
#4280
b100 #
b11 "
1&
#4300
0&
#4320
b0 #
b100 "
1&
#4330
b101 #
1$
#4340
0&
#4360
b1 !
b1 #
b101 "
1&
#4380
0&
#4400
b0 !
b1 "
1&
#4410
b10 #
0$
#4420
0&
#4440
b11 #
b10 "
1&
#4450
b110 #
1$
#4460
0&
#4480
b1 #
b110 "
1&
#4490
b111 #
0$
#4500
0&
#4520
b11 #
b111 "
1&
#4530
b1000 #
1$
#4540
0&
#4560
b11 !
b1 #
b1000 "
1&
#4570
b111 #
0$
#4580
0&
#4600
b0 !
b11 #
b111 "
1&
#4610
b1000 #
1$
#4620
0&
#4640
b11 !
b1 #
b1000 "
1&
#4660
0&
#4680
b0 !
b1 "
1&
#4690
b10 #
0$
#4700
0&
#4720
b11 #
b10 "
1&
#4730
b110 #
1$
#4740
0&
#4760
b1 #
b110 "
1&
#4770
b111 #
0$
#4780
0&
#4800
b11 #
b111 "
1&
#4810
b1000 #
1$
#4820
0&
#4840
b11 !
b1 #
b1000 "
1&
#4850
b111 #
0$
#4860
0&
#4880
b0 !
b11 #
b111 "
1&
#4890
b1000 #
1$
#4900
0&
#4920
b11 !
b1 #
b1000 "
1&
#4940
0&
#4960
b0 !
b1 "
1&
#4970
b10 #
0$
#4980
0&
#5000
b11 #
b10 "
1&
#5020
0&
#5040
b100 #
b11 "
1&
#5060
0&
#5080
b0 #
b100 "
1&
#5090
b101 #
1$
#5100
0&
#5120
b1 !
b1 #
b101 "
1&
#5130
b10 #
0$
#5140
0&
#5160
b0 !
b11 #
b10 "
1&
#5180
0&
#5200
b100 #
b11 "
1&
#5220
0&
#5240
b0 #
b100 "
1&
#5250
b101 #
1$
#5260
0&
#5280
b1 !
b1 #
b101 "
1&
#5290
b10 #
0$
1%
#5300
0&
#5320
b0 !
b0 #
b0 "
1&
#5340
b1 #
0&
1$
0%
#5360
b1 "
1&
